STAT 434 Final Project: Predicting Kobe Bryant Shot Makes and Misses
…
From here, we see that most variables are numeric while a few are character variables. I wnat to encode (one-hot encode) these character variables, so I examined each character variable in further detail to see whether or not it was worth doing so (that could mean: are there too many levels to encode? is what the variable is measuring worth keeping?).

Viewing unique values for character-type variables

unique(kobe_clean[c("action_type")])

## # A tibble: 57 x 1
##    action_type         
##    <chr>               
##  1 Jump Shot           
##  2 Driving Dunk Shot   
##  3 Layup Shot          
##  4 Running Jump Shot   
##  5 Driving Layup Shot  
##  6 Reverse Layup Shot  
##  7 Reverse Dunk Shot   
##  8 Slam Dunk Shot      
##  9 Turnaround Jump Shot
## 10 Tip Shot            
## #  with 47 more rows
…
kobe_rec <- 
  recipe(shot_made_flag ~ ., data = train) %>%
  step_pca(all_numeric(), num_comp = 11, 
           options = c(center = TRUE)) %>%
  step_normalize(all_numeric())

kobe_trained <- kobe_rec %>% prep(train)
kobe_pcs <- kobe_trained %>% bake(train)

With 11 PCs, these are the values for each PC as well as the shot_made_flag value (0 for miss, 1 for make) for each of the shots in our training dataset:

kobe_pcs

## # A tibble: 25,697 x 12
##    shot_made_flag    PC01   PC02   PC03    PC04   PC05   PC06   PC07   PC08
##    <fct>            <dbl>  <dbl>  <dbl>   <dbl>  <dbl>  <dbl>  <dbl>  <dbl>
##  1 0               1.46    1.10  -0.424 -1.85   -1.43   1.31   0.198  1.19 
##  2 1               0.997  -0.445  0.985  0.152  -0.651  1.38   0.996 -1.01 
##  3 0              -1.16   -1.01   1.41  -0.167  -0.375  1.36   0.967 -1.33 
##  4 1               0.0324  1.04  -0.593  1.02   -0.254  0.348 -0.562 -0.221
##  5 0               1.34    1.22   0.140 -1.85   -1.11  -0.414  0.352  1.19 
##  6 1               0.0322  1.05   1.29   0.996  -0.790 -0.536 -0.836 -0.543
##  7 1               0.661  -0.157 -0.920  0.498  -0.362 -0.396  1.24   1.86 
##  8 0               0.376  -0.359  0.463  0.785   0.527 -0.358  0.969  1.56 
##  9 0               0.970  -1.61   1.68   0.149   1.04  -0.290 -0.990  0.449
## 10 1              -1.02   -0.460 -1.59   0.0121 -1.85   1.23   0.813 -1.16 
## #  with 25,687 more rows, and 3 more variables: PC09 <dbl>, PC10 <dbl>,
## #   PC11 <dbl>
…
